<?xml version="1.0" standalone="no"?>
<!DOCTYPE svg PUBLIC "-//W3C//DTD SVG 1.1//EN" "http://www.w3.org/Graphics/SVG/1.1/DTD/svg11.dtd">
<svg xmlns="http://www.w3.org/2000/svg">
<metadata>Copyright (C) 2014 by original authors @ fontello.com</metadata>
<defs>
<font id="icon-font" horiz-adv-x="1000" >
<font-face font-family="icon-font" font-weight="400" font-stretch="normal" units-per-em="1000" ascent="850" descent="-150" />
<missing-glyph horiz-adv-x="1000" />
<glyph glyph-name="user" unicode="&#xf007;" d="m736 128q204-72 204-122l0-106-940 0 0 106q0 50 204 122 94 34 128 69t34 95q0 22-22 49t-32 73q-2 12-9 18t-14 8-14 17-9 43q0 16 5 26t9 12l4 4q-8 50-12 88-4 54 41 112t157 58 158-58 40-112l-12-88q18-8 18-42-2-28-9-43t-14-17-14-8-9-18q-8-48-31-74t-23-48q0-60 35-95t127-69z" horiz-adv-x="940" />
<glyph glyph-name="anchor" unicode="&#xe819;" d="m678 286q21 0 36-16t15-37q0-151-106-258t-258-107-258 107-107 258q0 22 16 37t37 16 36-16 15-37q0-93 59-165t150-90l0 385-209 0q-21 0-36 16t-15 37 15 36 36 15l209 0 0 63q-47 16-75 56t-29 90q0 65 45 110t111 46 111-46 45-110q0-50-29-90t-76-56l0-63 209 0q21 0 37-15t16-36-16-37-37-16l-209 0 0-385q90 18 150 90t59 165q0 22 16 37t37 16z m-313 442q-21 0-37-15t-15-37 15-37 37-16 36 16 15 37-15 37-36 15z" horiz-adv-x="729" />
<glyph glyph-name="heart-filled" unicode="&#xe803;" d="m456 487q0 95-67 161t-161 67-162-67-66-161q0-137 91-229 37-36 128-104t164-118l73-50q282 190 364 272 91 92 91 229 0 95-66 161t-161 67-161-67-67-161z" horiz-adv-x="911" />
<glyph glyph-name="star" unicode="&#xe804;" d="m741-118q-19 0-39 12l-213 121-215-121q-44-24-84 3-41 29-31 79l50 243q-10 9-39 35t-45 40l-99 90q-37 35-21 82t66 54l244 26 102 225q22 47 72 47 47 0 71-47l101-225 245-27q48-4 65-52t-21-83l-183-166 50-242q7-35-16-64t-60-29z m-425 343q-1-4-7-36t-17-84-20-92l190 107q27 14 52 0l190-107-44 213q-6 29 16 49l161 148-217 23q-30 4-41 30l-90 199-90-199q-13-26-43-30l-216-23 161-148q21-19 15-50z" horiz-adv-x="976" />
<glyph glyph-name="star-filled" unicode="&#xe805;" d="m297 498q69 152 114 252 6 15 24 15t23-15l114-252q164-18 274-30 15-3 21-18t-6-27l-204-187q33-161 55-270 3-15-10-25t-27-2l-240 136q-144-81-240-136-15-9-28 2t-11 25l56 270q-122 112-204 187-12 11-6 26t21 19z" horiz-adv-x="869" />
<glyph glyph-name="ok" unicode="&#xe801;" d="m625 676q38-20 49-63t-9-80l-260-469q-30-53-91-53-43 0-74 31l-209 207q-31 32-31 74t31 74 74 31 74-31l111-110 193 347q20 38 62 50t80-8z" horiz-adv-x="679" />
<glyph glyph-name="cancel" unicode="&#xe806;" d="m596 632q32-31 32-74t-32-74l-135-135 135-135q32-31 32-73t-32-74q-30-30-73-30t-74 30l-135 135-135-135q-30-30-74-30t-74 30q-31 31-31 74t31 73l135 135-135 135q-31 32-31 74t31 74q30 31 74 31t74-31l135-135 135 135q30 31 74 31t73-31z" horiz-adv-x="628" />
<glyph glyph-name="info" unicode="&#xe800;" d="m331 37q18 6 30-12t-4-34q-5-5-22-16t-59-26-84-15q-109 0-149 79-35 74 13 167l52 104q28 55 3 73-5 5-22 5-11 0-24-3t-22-5l-7-2q-19-7-31 11t4 32q7 7 22 17t58 26 84 16q111 0 150-79 35-73-12-167l-53-104q-27-56-2-74 3-3 21-3 11 0 24 2t22 5z m-174 600q0 130 130 130t130-130-130-130-130 130z" horiz-adv-x="417" />
<glyph glyph-name="attach" unicode="&#xe807;" d="m285 223q-52 0-91 38t-39 92q0 55 38 93l236 236q61 61 147 61t148-61 61-148-61-147l-369-369q-61-61-146-61-86 0-148 61t-61 148 61 147l42 41q0-61 37-110l-5-5q-30-30-30-73t30-74 74-30 74 30q61 61 183 184t184 185q30 30 30 73t-30 74q-31 30-74 30t-73-30l-237-236q-7-8-7-19t7-19 19-7 19 7l184 184q31-31 31-74 0-41-31-72l-110-111q-38-38-93-38z" horiz-adv-x="785" />
<glyph glyph-name="flag" unicode="&#xe81b;" d="m640 693q25 25 57 11t32-47l0-418q0-21-15-36-80-80-193-80t-193 80q-47 46-110 50t-114-36l0-238q0-21-15-37t-36-15-37 15-16 37l0 678q0 21 15 36 80 80 193 80t193-80q50-50 120-50t119 50z m-312-74q-47 47-110 50t-114-36l0-119q67 33 145 20t134-67q48-49 117-56t125 28l0 122q-72-32-156-16t-141 74z m73-342q47-46 110-50t114 36l0 119q-54-25-104-25-100 0-175 72-48 49-117 56t-125-29l0-120q52 21 105 21 112 0 192-80z" horiz-adv-x="729" />
<glyph glyph-name="flag-filled" unicode="&#xe808;" d="m640 693q25 25 57 11t32-47l0-418q0-21-15-36-80-80-193-80t-193 80q-47 46-110 50t-114-36l0-238q0-21-15-37t-36-15-37 15-16 37l0 678q0 21 15 36 80 80 193 80t193-80q50-50 120-50t119 50z" horiz-adv-x="729" />
<glyph glyph-name="thumbs-up" unicode="&#xe809;" d="m811 470q38-13 58-51t15-77l-35-312q-6-39-32-70t-58-44q-5-1-26-9t-29-11-30-7-45-6-56-2q-83 0-174 26t-130 56q-1 1-3 2t-4 4-3 4q-46-40-103-40-65 0-110 45t-46 111l0 313q0 65 46 110t110 46q77 0 124-63 44 44 64 85t21 108q0 54 38 92t92 39 92-39 38-92q0-94-16-188 170-17 202-30z m-655-432q22 0 37 15t16 36l0 313q0 21-16 36t-37 16-37-16-15-36l0-313q0-21 15-36t37-15z m590 7l35 312q3 12-6 16-15 4-107 15t-119 14l-69-10 16 73q25 117 25 223 0 10-8 18t-18 8-18-8-8-18q0-54-11-98t-32-78-37-51-40-43q-36-36-36-69l0-260q0-30 18-44 24-17 99-38t143-22q26 0 45 2t35 4 23 6 23 8 24 9q6 3 14 13t9 18z" horiz-adv-x="885" />
<glyph glyph-name="thumbs-down" unicode="&#xe80a;" d="m729 768q65 0 111-46t45-110l0-313q0-65-45-111t-111-45q-76 0-124 62-42-42-63-84t-21-109q0-54-38-92t-92-39-92 39-39 92q0 95 16 188-173 19-201 29-37 14-59 52t-15 78l35 311q7 38 32 70t58 44q5 1 26 9t29 11 30 8 45 6 57 1q82 0 174-26t131-55q2-2 5-5t3-5q47 40 103 40z m-313-755q0 54 11 97t33 78 36 52 40 43q37 36 37 69l0 260q0 11-7 25t-12 18q-24 18-99 39t-142 21q-27 0-46-1t-35-4-23-6-23-9-23-8q-7-3-15-13t-9-19l-34-311q-2-12 5-16 15-4 108-15t118-14l69 10-15-74q-25-122-25-222 0-10 8-18t17-8 18 8 8 18z m365 286l0 313q0 21-15 36t-37 15-36-15-15-36l0-313q0-21 15-37t36-15 37 15 15 37z" horiz-adv-x="885" />
<glyph glyph-name="pencil" unicode="&#xe80b;" d="m938 605q22-22 22-55t-22-55l-570-570q-22-21-60-38t-73-17l-235 0 0 234q0 35 17 74t38 60l570 570q23 22 55 22t55-22z m-794-426l65-64 431 433-64 63z m91-205q14 0 33 8-10 10-27 26t-50 50-56 56l-22 22q-9-21-9-32l0-78 52-52 79 0z m74 40l432 432-63 64-433-431z m469 469l67 67-165 165-67-66z" horiz-adv-x="960" />
<glyph glyph-name="pen" unicode="&#xe80c;" d="m756 846q96 0 166-70t70-167q0-27-9-62 25-78-31-134l-234-235q-37-37-92-37l-4 0-113-113q-31-31-78-50-13-5-362-121-10-3-16-3-26 0-42 22t-8 46q116 349 121 361 19 48 52 80 413 413 415 414 71 69 165 69z m-382-778l-158 159q-3-8-15-44t-22-62l89-89q44 14 106 36z m-213-2q-9-25-27-78l79 26z m401 162q-15 23-13 50t22 48l192 192-142 143-372-373q-6-6-10-11l184-184q1 1 6 4t7 5z m316 259q18 17-1 35t-35 1l-235-234q-13-12-5-28t24-17q11 0 18 8z m-79 67q39 39 85 24 4 15 4 31 0 54-39 93-41 39-97 37t-95-42z" horiz-adv-x="992" />
<glyph glyph-name="heart" unicode="&#xe802;" d="m508-66q-17 0-29 9-26 17-85 58t-154 112-134 110q-106 106-106 264 0 116 82 198t198 82q143 0 228-118 38 55 99 86t129 32q117 0 198-82t81-198q0-158-106-264-38-38-133-110t-155-113-83-57q-13-9-30-9z m-228 729q-72 0-124-51t-52-125q0-114 76-190 79-79 328-248 248 169 327 248 76 76 76 190 0 73-51 125t-124 51q-73 0-125-51t-51-125q0-22-16-37t-36-15-37 15-15 37q0 73-52 125t-124 51z" horiz-adv-x="1015" />
<glyph glyph-name="bell" unicode="&#xe80e;" d="m819 100q24-26 10-57t-47-32l-164 0q-17-69-74-112t-127-44-127 44-73 112l-164 0q-32 0-47 33t10 57q3 4 10 12t21 37 27 63 22 93 10 123q0 101 58 182t150 113q-1 6-1 17 0 43 30 73t74 31 74-31 31-73q0-5-3-17 93-33 152-113t58-182q0-65 10-123t22-93 27-64 21-36 10-13z m-402 536q-86 0-147-60t-61-147q0-61-5-105l427 0q-7 54-7 105 0 86-61 147t-146 60z m0-676q61 0 90 51l-179 0q29-51 89-51z m-270 156l541 0q-31 65-49 157l-443 0q-18-92-49-157z" horiz-adv-x="834" />
<glyph glyph-name="address" unicode="&#xe80f;" d="m933 533l-143-135-4-4q48-54 48-121 0-75-54-129t-129-54l-141 0-41-208-53 0-41 208-115 0q-69 0-117 49l-134 134 96 96q-47 21-76 66t-29 98q0 75 54 129t129 53l182 0 0 27q0 31 23 54t55 23 55-23 23-54l0-27 152 0q67 0 116-46z m-282-339q32 0 55 23t23 56-23 55-55 22l-391 0q-26 0-44-17l-60-60 60-60q19-19 44-19l391 0z m67 279l63 60-63 60q-19 19-45 19l-490 0q-33 0-56-24t-23-55q0-31 23-55t56-23l490 0q27 0 45 18z" horiz-adv-x="933" />
<glyph glyph-name="location-outline" unicode="&#xe810;" d="m416 741q-128 0-221-90-91-88-91-216 0-126 91-215l221-219 223 219q90 88 90 215 0 129-90 216-93 90-223 90z m0 104q174 0 295-120t122-290-122-290l-295-290-293 290q-123 120-123 290t123 290 293 120z m0-286q-52 0-91-39t-39-92 39-92q38-37 91-37 55 0 93 37 39 39 39 92t-39 92-93 39z m0 52q75 0 129-53t54-129-54-129-129-54-128 54-54 129 54 129 128 53z" horiz-adv-x="833" />
<glyph glyph-name="location" unicode="&#xe811;" d="m711 725q122-120 122-290t-122-290l-295-290-293 290q-123 120-123 290t123 290 295 120 293-120z m-295-426q55 0 93 37 39 39 39 92t-39 92-93 39q-52 0-91-39t-39-92 39-92q38-37 91-37z" horiz-adv-x="833" />
<glyph glyph-name="basket" unicode="&#xe812;" d="m950 715q23 0 39-18t14-42l-53-365q-2-18-17-31t-34-12l-590 0 9-53 528 0q22 0 37-16t16-36-16-37-37-15l-572 0q-20 0-35 13t-16 30l-98 582-72 0q-22 0-37 15t-16 37 16 36 37 16l116 0q19 0 34-12t17-32l11-60 719 0z m-60-105l-200 0 0-103 185 0z m-252 0l-157 0 0-103 157 0 0 103z m0-156l-157 0 0-104 157 0 0 104z m-208 156l-182 0 18-105q3 2 8 2l156 0 0 103z m-156-156l17-104 139 0 0 104-156 0z m416-104l164 0 14 104-178 0 0-104z m-416-390q0 78 77 78 79 0 79-78 0-78-79-78-77 0-77 78z m469 0q0 78 77 78 79 0 79-78 0-78-79-78-77 0-77 78z" horiz-adv-x="1003" />
<glyph glyph-name="calendar" unicode="&#xe813;" d="m834 653q46-16 75-56t29-90l0-469q0-65-46-111t-111-46l-625 0q-65 0-110 46t-46 111l0 469q0 50 29 90t75 56l0 10q0 65 45 110t111 46 111-46 45-110l105 0q0 65 46 110t111 46 110-46 46-110l0-10z m-209 10l0-104q0-21 16-37t37-15 36 15 15 37l0 104q0 21-15 37t-36 15-37-15-16-37z m-416 0l0-104q0-21 15-37t36-15 37 15 16 37l0 104q0 21-16 37t-37 15-36-15-15-37z m625-625l0 312-730 0 0-312q0-21 15-37t37-16l625 0q22 0 37 16t16 37z" horiz-adv-x="938" />
<glyph glyph-name="stopwatch" unicode="&#xe814;" d="m855 537q83-117 83-265 0-194-138-331t-331-138-331 138-138 331q0 180 120 313t298 152l0 1-2 3 0 51-51 0q-21 0-37 16t-15 37 15 36 37 16l208 0q21 0 36-16t16-36-16-37-36-16l-52 0 0-51-1-1 0-3q156-17 270-125 1 1 3 4t3 5l27 26q15 15 36 15t37-15 15-37-15-37l-26-26q-5-5-15-10z m-386-630q151 0 258 107t107 258-107 258-258 106-258-106-107-258 107-258 258-107z m52 416l104 0q21 0 37-15t16-36-16-37-37-15l-156 0q-21 0-37 15t-16 37l0 156q0 22 16 37t37 15 37-15 15-37l0-105z m-52 262q129 0 220-92t92-221-92-221-220-92-221 92-92 221 92 221 221 92z m0-574q107 0 184 77t76 184-76 184-184 76-184-76-76-184 76-184 184-77z" horiz-adv-x="938" />
<glyph glyph-name="lightbulb" unicode="&#xe815;" d="m390 663q64 0 109-45t46-110q0-11-7-18t-19-8-19 8-7 18q0 43-30 73t-73 30q-25 0-25 26t25 26z m0-860q-21 0-36 16t-15 37l-104 0q-21 0-37 15t-15 37l0 157q0 31-23 76t-90 142q-70 97-70 224 0 161 114 276t276 114 276-114 115-276q0-121-71-224-67-96-89-140t-22-78l0-157q0-21-15-37t-36-15l-105 0q0-22-16-37t-37-16z m105 156l0 53-209 0 0-53 209 0z m130 383q53 76 53 165 0 118-85 202t-203 84q-117 0-202-84t-84-202q0-87 52-164 107-155 124-227l59 0 0 105q0 21 15 36t36 15 37-15 16-36l0-105 57 0q16 71 125 226z" horiz-adv-x="781" />
<glyph glyph-name="contrast" unicode="&#xe81c;" d="m416 767q173 0 295-122t123-295-123-294-295-122-294 122-122 294 122 295 294 122z m0-729q129 0 221 91t92 221-92 222-221 91-220-91-92-222 92-221 220-91z m0 572q108 0 185-76t77-184-77-183-185-77l0 520z" horiz-adv-x="834" />
<glyph glyph-name="key" unicode="&#xe81a;" d="m183 455q0 107 76 183t184 77 183-77 77-183-77-185-183-77l-130 0 0-103-104 0 0-104-105 0q-43 0-73 22t-31 55l0 79 206 205q-23 51-23 108z m260-105q42 0 73 31t32 74-31 73-74 30q-43 0-74-30t-30-73q0-44 30-75t74-30z" horiz-adv-x="703" />
<glyph glyph-name="wine" unicode="&#xe816;" d="m580 484q0-106-68-187t-171-98q0-1 1-2t1-3l0-209 51 0q21 0 37-15t15-36-15-37-37-16l-208 0q-21 0-37 16t-15 37 15 36 37 15l52 0 0 209q0 1 0 3t1 2q-103 18-171 98t-68 187q0 59 13 133t22 115 14 50q5 16 19 26t31 11l382 0q18 0 32-11t18-26q4-9 14-50t23-115 12-133z m-290-186q69 0 121 44t62 112l-365 0q10-67 61-112t121-44z m-185 209l370 0q-5 98-34 208l-302 0q-29-110-34-208z" horiz-adv-x="580" />
<glyph glyph-name="coffee" unicode="&#xe817;" d="m678-15l-625 0q-22 0-37 16t-16 37 16 36 37 16l625 0q21 0 36-16t15-36-15-37-36-16z m25 730q75 0 128-54t54-128-54-129-128-54l-25 0 0-104q0-43-32-74t-73-31l-417 0q-42 0-73 31t-30 74l0 469 650 0z m-130-469l0 364-417 0 0-364 417 0z m130 208q32 0 55 23t23 56q0 31-23 54t-55 23l-78 0 0-156 78 0z" horiz-adv-x="885" />
<glyph glyph-name="beer" unicode="&#xe818;" d="m260 115q0-10-7-17t-18-8-18 8-8 17l0 313q0 10 8 18t18 8 18-8 7-18l0-313z m105 0q0-10-8-17t-18-8-18 8-8 17l0 313q0 10 8 18t18 8 18-8 8-18l0-313z m104 0q0-10-8-17t-18-8-19 8-8 17l0 313q0 10 8 18t19 8 18-8 8-18l0-313z m234 548q75 0 128-54t54-129l0-260q0-75-54-128t-128-54l-25 0q0-65-46-111t-111-46l-365 0q-65 0-110 46t-46 111l0 677q0 43 30 73t74 31l469 0q43 0 74-31t31-73l0-52 25 0z m-599 52l0-78q0-32 23-55t56-23q45 0 67 40l9 16 19-3q17-3 34 6t23 27l6 18 232 0 0 52-469 0z m469-677l0 572-197 0q-31-51-90-51-40-52-103-52-45 0-79 26l0-495q0-21 15-37t37-16l365 0q22 0 37 16t15 37z m208 182l0 260q0 33-23 56t-55 23l-78 0 0-417 78 0q32 0 55 23t23 55z" horiz-adv-x="885" />
<glyph glyph-name="chat-alt" unicode="&#xe80d;" d="m1094 688q65 0 110-45t46-111l0-364q0-65-46-110t-110-46l-53 0 0-156-156 156-416 0q-65 0-111 46t-45 110l-157-156 0 156q-65 0-110 46t-46 111l0 363q0 65 46 111t110 46l625 0q65 0 111-46t46-111l156 0z m-938-416l209 0 0 234q0 54 38 92t92 39l339 0 0 51q0 22-16 37t-37 16l-625 0q-21 0-37-16t-15-37l0-363q0-22 15-37t37-16z m990-104l0 364q0 21-15 37t-37 16l-599 0q-32 0-56-24t-23-55l0-338q0-21 16-37t37-15l625 0q21 0 37 15t15 37z" horiz-adv-x="1250" />
</font>
</defs>
</svg>